0 0 4.8625 0.0054324
0 1 5.15143 0.00621729
0 2 -5.11475 0.00464531
0 3 -0.587697 0.00458686
1 0 4.78768 0.00503773
1 1 5.11185 0.00627285
1 2 -6.31984 0.00361294
1 3 -3.51707 0.00487325
2 0 4.85241 0.00388789
2 1 5.03186 0.00520818
2 2 -5.91813 0.00385018
2 3 -4.16131 0.00371965
3 0 4.85695 0.00502854
3 1 5.07009 0.00520853
3 2 -4.35131 0.00470061
3 3 -5.21835 0.00439609
